[
  {
    "title": true,
    "name": "MainMenu"
  },
  {
    "name": "Dashboard",
    "url": "/dashboard",
    "icon": "icon-speedometer",
    "index": 0
  },
  {
    "name": "RegistrationsTitle",
    "url": "/registrations",
    "icon": "icon-puzzle",
    "index": 10,
    "children": [
      {
        "name":  "SemesterRegistrationTitle",
        "url": "/registrations/semester",
        "icon": "icon-puzzle",
        "index": 0
      },

      {
        "name": "CoursesRegistrations",
        "url": "/registrations/courses",
        "icon": "icon-puzzle",
        "index": 5
      },
      {
        "name": "RegistrationsHistory",
        "url": "/registrations/list",
        "icon": "icon-puzzle",
        "index": 10
      },
      {
        "name": "ThesisProposalsTitle",
        "url": "/thesis-proposals/browse",
        "icon": "icon-puzzle",
        "index": 15
      }
    ]
  },

  {
    "name": "GradesTitle",
    "url": "/grades",
    "icon": "icon-book-open",
    "index": 20,
    "children": [
      {
        "name": "RecentGrades",
        "url": "/grades/recent",
        "icon": "icon-puzzle",
        "index": 0
      },
      {
        "name": "AllGrades",
        "url": "/grades/all",
        "icon": "icon-puzzle",
        "index": 5
      },
      {
        "name": "Theses",
        "url": "/grades/theses",
        "icon": "icon-puzzle",
        "index": 6
      },
      {
        "name": "Internship",
        "url": "/grades/internship",
        "icon": "icon-puzzle",
        "index": 7
      },
      {
        "name": "GraduationRules",
        "url": "/graduation",
        "icon": "icon-puzzle",
        "index": 8
      }
    ]
  },

  {
    "name": "supportMenu.Support",
    "url": "",
    "icon": "icon-note",
    "index": 30,
    "children": [
      {
        "name": "RequestsTitle",
        "url": "/requests/list",
        "icon": "icon-puzzle",
        "index": 0
      },
      {
        "name": "DepartmentInfo",
        "url": "/info/department",
        "icon": "icon-puzzle",
        "index": 2
      }
    ]
  },

  {
    "divider": true
  },
  {
    "title": true,
    "name": "UserMenu"
  },
  {
    "name": "ProfileTitle",
    "url": "/profile",
    "icon": "icon-user",
    "index": 40
  },

  {
    "name": "LanguagesTitle",
    "url": "/lang",
    "icon": "icon-globe",
    "index": 50,
    "children": []

  },
  {
    "name": "Logout",
    "url": "/auth/logout",
    "icon": "icon-lock",
    "variant": "notice",
    "index": 60
  }
]
